// https://tiki.vn/api/v2/reviews?limit=5&include=comments,contribute_info,attribute_vote_summary&sort=score%7Cdesc,id%7Cdesc,stars%7Call&page=1&spid=214186190&product_id=276388548&seller_id=1
{
    "stars": {
        "1": {
            "count": 3,
            "percent": 1
        },
        "2": {
            "count": 5,
            "percent": 2
        },
        "3": {
            "count": 8,
            "percent": 4
        },
        "4": {
            "count": 19,
            "percent": 9
        },
        "5": {
            "count": 180,
            "percent": 84
        }
    },
    "rating_average": 4.7,
    "reviews_count": 215,
    "review_photo": {
        "total": 34,
        "total_photo": 65
    },
    "data": [
        {
            "id": 20087455,
            "title": "Cực kì hài lòng",
            "content": "Sách cũ và dơ, yêu cầu được đổi trả.\r\nUpdated: Phải nói rằng Tiki hỗ trợ khách hàng quá tốt, ngay khi tôi vừa đăng phàn nàn xong thì họ đã gọi điện giải quyết ngay, cho mình chọn hoàn tiền hay đổi lại quyển khác. Mình đã chọn đổi thì ngay hôm sau đã có người đến lấy và hôm sau nữa là họ đã đổi mình quyển khác rồi. Mặc dù sách cũng không mới như mong đợi nhưng đã đỡ hơn quyển trước đó rồi. Chắc họ cũng chỉ còn lại những quyển như vậy thôi. Mình đánh giá cao thái độ hỗ trợ của Tiki.",
            "status": "approved",
            "thank_count": 2,
            "score": 0.02344177,
            "new_score": 0.18894649,
            "customer_id": 175367,
            "comment_count": 1,
            "rating": 5,
            "images": [
                {
                    "id": 4398206,
                    "full_path": "https://salt.tikicdn.com/ts/review/2e/36/59/e1187411c82064f83daad79fd38ab75b.jpg",
                    "status": "approved"
                },
                {
                    "id": 4398207,
                    "full_path": "https://salt.tikicdn.com/ts/review/f6/ee/61/0369178d5cebe2da6a21e5544fdbaea2.jpg",
                    "status": "approved"
                },
                {
                    "id": 4398208,
                    "full_path": "https://salt.tikicdn.com/ts/review/2a/48/94/94dfcfae9473eda9c55d3aac832ceb05.jpg",
                    "status": "approved"
                }
            ],
            "thanked": false,
            "created_at": 1740479724,
            "created_by": {
                "id": 175367,
                "name": "Trần Hoàng Khanh",
                "full_name": "Trần Hoàng Khanh",
                "region": null,
                "avatar_url": "//tiki.vn/assets/img/avatar.png",
                "created_time": "2013-09-20 23:46:12",
                "group_id": 8,
                "purchased": true,
                "purchased_at": 1740643502,
                "contribute_info": {
                    "id": 175367,
                    "name": "Trần Hoàng Khanh",
                    "avatar": "//tiki.vn/assets/img/avatar.png",
                    "summary": {
                        "joined_time": "Đã tham gia 13 năm",
                        "total_review": 63,
                        "total_thank": 19
                    }
                }
            },
            "suggestions": [],
            "attributes": [
                "Mua từ nhà bán Tiki Trading",
                "Loại bìa Bìa mềm"
            ],
            "product_attributes": [
                "Loại bìa: Bìa mềm"
            ],
            "spid": 214186190,
            "is_photo": true,
            "seller": {
                "id": 1,
                "name": "Tiki Trading",
                "logo": "d1/3f/ae/13ce3d83ab6b6c5e77e6377ad61dc4a5.jpg"
            },
            "product_id": 276388548,
            "comments": [
                {
                    "id": 3309431,
                    "review_id": 20087455,
                    "commentator": "tikicare",
                    "customer_id": 0,
                    "fullname": "Tiki Care",
                    "avatar_url": "https://salt.tikicdn.com/ts/ta/21/ce/5c/f3809056f0195db1a6295a50ac68ee0e.jpg",
                    "content": "Tiki cảm ơn anh Khanh đã gửi nhận xét đến Tiki. Qua kiểm tra, Tiki thấy đơn hàng đang được xử lý tại mã hỗ trợ 04302302. Tiki cảm ơn anh nhiều.",
                    "score": 0,
                    "create_at": 1740479833,
                    "badge": "https://salt.tikicdn.com/ts/review/05/6f/c0/d7462c4721ae3d6aabb2f51ff13fa44f.png",
                    "status": 1,
                    "is_reported": false
                }
            ],
            "vote_attributes": {
                "agree": [],
                "disagree": []
            },
            "delivery_rating": [
                {
                    "question": "Thời gian giao hàng?",
                    "option": "Giao đúng hẹn"
                },
                {
                    "question": "Thái độ của shipper?",
                    "option": "Lịch sự"
                },
                {
                    "question": "Giờ giao hàng?",
                    "option": "Có hẹn giờ trước"
                },
                {
                    "question": "Cách đóng gói sản phẩm?",
                    "option": "Cẩu thả"
                }
            ]
        },
        {
            "id": 20189759,
            "title": "Cực kì hài lòng",
            "content": "Một trong những quyển sách hay nhất mình từng đọc, cùng với đó là Thiên nga đen. Một công trình đồ sộ, đa ngành, và mang tính ứng dụng cao đằng sau vẻ bề ngoài học thuật khô khan, khó nhằng khi đọc nhưng dám chắc khi đã hoàn thành xong thì rất xứng đáng.",
            "status": "approved",
            "thank_count": 1,
            "score": 0.12518105,
            "new_score": 0.18620512,
            "customer_id": 1651143,
            "comment_count": 0,
            "rating": 5,
            "images": [
                {
                    "id": 4417667,
                    "full_path": "https://salt.tikicdn.com/ts/review/15/f3/35/34369dca384397d5b07bc526417c32cc.jpg",
                    "status": "approved"
                }
            ],
            "thanked": false,
            "created_at": 1762910349,
            "created_by": {
                "id": 1651143,
                "name": "Lê Thanh Danh",
                "full_name": "Lê Thanh Danh",
                "region": null,
                "avatar_url": "https://salt.tikicdn.com/cache/512x512/ts/avatar/92/55/06/a4aa6816bce8c0746cab74772f706cdc.png",
                "created_time": "2016-08-29 14:41:01",
                "group_id": 8,
                "purchased": true,
                "purchased_at": 1759691196,
                "contribute_info": {
                    "id": 1651143,
                    "name": "Lê Thanh Danh",
                    "avatar": "https://salt.tikicdn.com/cache/512x512/ts/avatar/92/55/06/a4aa6816bce8c0746cab74772f706cdc.png",
                    "summary": {
                        "joined_time": "Đã tham gia 10 năm",
                        "total_review": 22,
                        "total_thank": 13
                    }
                }
            },
            "suggestions": [],
            "attributes": [
                "Mua từ nhà bán Tiki Trading",
                "Loại bìa Bìa mềm"
            ],
            "product_attributes": [
                "Loại bìa: Bìa mềm"
            ],
            "spid": 214186190,
            "is_photo": true,
            "seller": {
                "id": 1,
                "name": "Tiki Trading",
                "logo": "https://vcdn.tikicdn.com/ts/seller/d1/3f/ae/13ce3d83ab6b6c5e77e6377ad61dc4a5.jpg"
            },
            "product_id": 276388548,
            "timeline": {
                "review_created_date": "2025-11-12 08:19:09",
                "delivery_date": "2025-10-08 10:03:54",
                "current_date": "2026-01-27 14:50:30",
                "content": "Đã dùng 1 tháng",
                "explain": "Khi viết đánh giá, khách hàng đã dùng sản phẩm 1 tháng."
            },
            "comments": [],
            "vote_attributes": {
                "agree": [
                    "in ấn/màu sắc rõ nét",
                    "Nội dung sách hấp dẫn, bổ ích",
                    "Trình bày/Bố cục dễ hiểu"
                ],
                "disagree": []
            },
            "delivery_rating": []
        },
        {
            "id": 20114688,
            "title": "Hài lòng",
            "content": "Cũng biết là sách có nhiều trang nên khá dễ bị bong keo so vs sách nhỏ hơn. Nhưng nhìn vẫn rất khó chịu. Ko biết lỗi này là do bên nsx làm ko chắc hay sao ….. Mà thực sự mới mua mà bị bong thế này nó rất bực luôn ý 🥲",
            "status": "approved",
            "thank_count": 0,
            "score": 44.44444444,
            "new_score": 0.18515915,
            "customer_id": 19132745,
            "comment_count": 0,
            "rating": 4,
            "images": [
                {
                    "id": 4403638,
                    "full_path": "https://salt.tikicdn.com/ts/review/94/46/ff/7eae1013d9d3ad4247e71e1907371e2c.jpg",
                    "status": "approved"
                },
                {
                    "id": 4403639,
                    "full_path": "https://salt.tikicdn.com/ts/review/c8/e0/09/e6f12df195a27517573d772a9394cc31.jpg",
                    "status": "approved"
                },
                {
                    "id": 4403640,
                    "full_path": "https://salt.tikicdn.com/ts/review/3b/2d/e2/e53fd3d76ec5545f3d865a34da48e6e7.jpg",
                    "status": "approved"
                }
            ],
            "thanked": false,
            "created_at": 1745389716,
            "created_by": {
                "id": 19132745,
                "name": "Yến Linh",
                "full_name": "Yến Linh",
                "region": null,
                "avatar_url": "https://salt.tikicdn.com/cache/512x512/ts/avatar/70/b1/9d/ca8c8e588353d7206b30bfac6ef87401.png",
                "created_time": "2020-11-10 17:34:15",
                "group_id": 8,
                "purchased": true,
                "purchased_at": 1744722018,
                "contribute_info": {
                    "id": 19132745,
                    "name": "Yến Linh",
                    "avatar": "https://salt.tikicdn.com/cache/512x512/ts/avatar/70/b1/9d/ca8c8e588353d7206b30bfac6ef87401.png",
                    "summary": {
                        "joined_time": "Đã tham gia 5 năm",
                        "total_review": 16,
                        "total_thank": 1
                    }
                }
            },
            "suggestions": [],
            "attributes": [
                "Mua từ nhà bán Tiki Trading",
                "Loại bìa Bìa mềm"
            ],
            "product_attributes": [
                "Loại bìa: Bìa mềm"
            ],
            "spid": 214186190,
            "is_photo": true,
            "seller": {
                "id": 1,
                "name": "Tiki Trading",
                "logo": "d1/3f/ae/13ce3d83ab6b6c5e77e6377ad61dc4a5.jpg"
            },
            "product_id": 276388548,
            "timeline": {
                "review_created_date": "2025-04-23 13:28:36",
                "delivery_date": "2025-04-16 13:46:00",
                "current_date": "2026-01-27 14:50:30",
                "content": "Đã dùng 7 ngày",
                "explain": "Khi viết đánh giá, khách hàng đã dùng sản phẩm 7 ngày."
            },
            "comments": [],
            "vote_attributes": {
                "agree": [],
                "disagree": []
            },
            "delivery_rating": [
                {
                    "question": "Thời gian giao hàng?",
                    "option": "Giao đúng hẹn"
                },
                {
                    "question": "Thái độ của shipper?",
                    "option": "Lịch sự"
                },
                {
                    "question": "Giờ giao hàng?",
                    "option": "Có hẹn giờ trước"
                },
                {
                    "question": "Cách đóng gói sản phẩm?",
                    "option": "Cẩn thận"
                }
            ]
        },
        {
            "id": 20203749,
            "title": "Cực kì hài lòng",
            "content": "Ship nhanh , đặt hqua là hnay có luôn.\r\nVề sách thì mỗi người sẽ có 1 cách nhìn và hiểu khác nhau , điều mình ấn tượng kh phải nội dung bên trong , mà là nội dung ở bìa sách , m.n có thể tham khảo để trau dồi thêm kiến thức cho mình!!",
            "status": "approved",
            "thank_count": 0,
            "score": 33.33333333,
            "new_score": 0.18507259,
            "customer_id": 30541238,
            "comment_count": 0,
            "rating": 5,
            "images": [
                {
                    "id": 4420421,
                    "full_path": "https://salt.tikicdn.com/ts/review/d7/3f/55/898cc6ea356320778846891bec3a2883.jpg",
                    "status": "approved"
                }
            ],
            "thanked": false,
            "created_at": 1767706547,
            "created_by": {
                "id": 30541238,
                "name": "Lương Ngọc Tài",
                "full_name": "Lương Ngọc Tài",
                "region": null,
                "avatar_url": "//tiki.vn/assets/img/avatar.png",
                "created_time": "2025-11-08 15:17:18",
                "group_id": 8,
                "purchased": true,
                "purchased_at": 1767619216,
                "contribute_info": {
                    "id": 30541238,
                    "name": "Lương Ngọc Tài",
                    "avatar": "//tiki.vn/assets/img/avatar.png",
                    "summary": {
                        "joined_time": "Đã tham gia 3 tháng",
                        "total_review": 2,
                        "total_thank": 0
                    }
                }
            },
            "suggestions": [],
            "attributes": [
                "Mua từ nhà bán Tiki Trading",
                "Loại bìa Bìa cứng"
            ],
            "product_attributes": [
                "Loại bìa: Bìa cứng"
            ],
            "spid": 276388551,
            "is_photo": true,
            "seller": {
                "id": 1,
                "name": "Tiki Trading",
                "logo": "https://vcdn.tikicdn.com/ts/seller/d1/3f/ae/13ce3d83ab6b6c5e77e6377ad61dc4a5.jpg"
            },
            "product_id": 276388548,
            "timeline": {
                "review_created_date": "2026-01-06 20:35:47",
                "delivery_date": "2026-01-06 13:48:30",
                "current_date": "2026-01-27 14:50:30",
                "content": "Đã dùng 7 giờ",
                "explain": "Khi viết đánh giá, khách hàng đã dùng sản phẩm 7 giờ."
            },
            "comments": [],
            "vote_attributes": {
                "agree": [],
                "disagree": []
            },
            "delivery_rating": [
                {
                    "question": "Thời gian giao hàng?",
                    "option": "Giao đúng hẹn"
                },
                {
                    "question": "Thái độ của shipper?",
                    "option": "Lịch sự"
                },
                {
                    "question": "Giờ giao hàng?",
                    "option": "Có hẹn giờ trước"
                },
                {
                    "question": "Cách đóng gói sản phẩm?",
                    "option": "Cẩn thận"
                }
            ]
        },
        {
            "id": 19827016,
            "title": "Hài lòng",
            "content": "Sách hay nhưng khó đọc nhé các bạn. Mặc dù dịch thuật nhiều chỗ hack não và tối nghĩa nhưng nội dung thực sự hay và đáng đọc, có đoạn phải đọc lại 2-3 lần mới hiểu. Hy vọng những lần tái bản sau Alpha book sẽ sửa lại các lỗi dịch thuật để truyền tải được nội dung sách trọn vẹn đến độc giả.",
            "status": "approved",
            "thank_count": 0,
            "score": 0.01409271,
            "new_score": 0.17688503,
            "customer_id": 1741872,
            "comment_count": 1,
            "rating": 4,
            "images": [
                {
                    "id": 4348461,
                    "full_path": "https://salt.tikicdn.com/ts/review/4b/43/1c/47e9c4a47518b04a6f1cdd209692c529.jpg",
                    "status": "approved"
                }
            ],
            "thanked": false,
            "created_at": 1711895743,
            "created_by": {
                "id": 1741872,
                "name": "Trần Hoài Thu",
                "full_name": "Trần Hoài Thu",
                "region": null,
                "avatar_url": "//tiki.vn/assets/img/avatar.png",
                "created_time": "2016-10-01 08:14:16",
                "group_id": 8,
                "purchased": true,
                "purchased_at": 1706768170,
                "contribute_info": {
                    "id": 1741872,
                    "name": "Trần Hoài Thu",
                    "avatar": "//tiki.vn/assets/img/avatar.png",
                    "summary": {
                        "joined_time": "Đã tham gia 10 năm",
                        "total_review": 37,
                        "total_thank": 5
                    }
                }
            },
            "suggestions": [],
            "attributes": [
                "Mua từ nhà bán Tiki Trading",
                "Loại bìa Bìa mềm"
            ],
            "product_attributes": [
                "Loại bìa: Bìa mềm"
            ],
            "spid": 214186190,
            "is_photo": true,
            "seller": {
                "id": 1,
                "name": "Tiki Trading",
                "logo": "d1/3f/ae/13ce3d83ab6b6c5e77e6377ad61dc4a5.jpg"
            },
            "product_id": 276388548,
            "timeline": {
                "review_created_date": "2024-03-31 21:35:43",
                "delivery_date": "2024-02-01 15:32:29",
                "current_date": "2026-01-27 14:50:31",
                "content": "Đã dùng 2 tháng",
                "explain": "Khi viết đánh giá, khách hàng đã dùng sản phẩm 2 tháng."
            },
            "comments": [
                {
                    "id": 3171954,
                    "review_id": 19827016,
                    "commentator": "seller",
                    "customer_id": 1,
                    "fullname": "Tiki Trading",
                    "avatar_url": "https://vcdn.tikicdn.com/ts/seller/d1/3f/ae/13ce3d83ab6b6c5e77e6377ad61dc4a5.jpg",
                    "content": "Tiki cảm ơn những chia sẻ và góp ý từ bạn. Thật tiếc khi nội dung sách chưa được như bạn mong đợi. Rất hy vọng các tựa sách khác tại Tiki sẽ làm bạn hài lòng hơn trong thời gian tới. Tiki cảm ơn bạn nhiều.",
                    "score": 0,
                    "create_at": 1711959010,
                    "badge": "https://salt.tikicdn.com/ts/review/05/6f/c0/d7462c4721ae3d6aabb2f51ff13fa44f.png",
                    "status": 1,
                    "is_reported": false
                }
            ],
            "vote_attributes": {
                "agree": [
                    "Bìa đẹp, bắt mắt",
                    "chất lượng giấy tốt",
                    "in ấn/màu sắc rõ nét",
                    "Nội dung bổ ích"
                ],
                "disagree": []
            },
            "delivery_rating": []
        }
    ],
    "paging": {
        "total": 223,
        "per_page": 5,
        "current_page": 1,
        "last_page": 45,
        "from": 1,
        "to": 5
    },
    "sort_options": [
        [
            {
                "label": "Hữu ích",
                "value": "score|desc"
            },
            {
                "label": "Mới nhất",
                "value": "id|desc"
            },
            {
                "label": "Có hình ảnh",
                "value": "has_image"
            }
        ],
        [
            {
                "label": "Tất cả khách hàng",
                "value": "customer|all"
            },
            {
                "label": "Khách đã mua hàng",
                "value": "bought"
            }
        ],
        [
            {
                "label": "Tất cả sao",
                "value": "stars|all"
            },
            {
                "label": "5 sao",
                "value": "stars|5"
            },
            {
                "label": "4 sao",
                "value": "stars|4"
            },
            {
                "label": "3 sao",
                "value": "stars|3"
            },
            {
                "label": "2 sao",
                "value": "stars|2"
            },
            {
                "label": "1 sao",
                "value": "stars|1"
            },
            {
                "label": "Hài lòng",
                "value": "stars|4|5"
            },
            {
                "label": "Chưa hài lòng",
                "value": "stars|1|2|3"
            }
        ]
    ],
    "exclude_image": false,
    "attribute_vote_summary": {
        "product_id": 276388548,
        "seller_id": 1,
        "number_of_vote_to_show": 20,
        "votes": [
            {
                "attribute_id": "in_an_mau_sac_ro_net",
                "attribute_name": "in ấn/màu sắc rõ nét",
                "total_vote": 3,
                "agree": 3,
                "disagree": 0,
                "no_idea": 0
            },
            {
                "attribute_id": "kho_sach_nho_gon_de_mang_di",
                "attribute_name": "Khổ sách nhỏ gọn, dễ mang đi",
                "total_vote": 2,
                "agree": 2,
                "disagree": 0,
                "no_idea": 0
            },
            {
                "attribute_id": "trinh_bay_bo_cuc_de_hieu",
                "attribute_name": "Trình bày/Bố cục dễ hiểu",
                "total_vote": 3,
                "agree": 3,
                "disagree": 0,
                "no_idea": 0
            },
            {
                "attribute_id": "noi_dung_sach_hap_dan_bo_ich",
                "attribute_name": "Nội dung sách hấp dẫn, bổ ích",
                "total_vote": 3,
                "agree": 3,
                "disagree": 0,
                "no_idea": 0
            }
        ]
    }
}